^C:\USERS\ROMAN\DESKTOP\QUAKESERVER\QUAKESERVER\DEBUG\MAIN.OBJ
C:\USERS\ROMAN\DESKTOP\QUAKESERVER\QUAKESERVER\DEBUG\QUAKESERVER.ILK
C:\USERS\ROMAN\DESKTOP\QUAKESERVER\QUAKESERVER\DEBUG\QUAKESERVER.EXE
C:\USERS\ROMAN\DESKTOP\QUAKESERVER\QUAKESERVER\DEBUG\QUAKESERVER.PDB
